
241.8829776779018
--------------------------------------------

262.0481935076069
--------------------------------------------

245.5378584211318
--------------------------------------------

243.5925415563229
--------------------------------------------

244.28539970858992
--------------------------------------------
Sum:	1237.3469708716
Average:	1237.3469708716 / 5 = 247.46939417431