
329.39255707170776
--------------------------------------------

309.72303937052675
--------------------------------------------

316.0239642423624
--------------------------------------------

319.3104969810727
--------------------------------------------

335.313973409239
--------------------------------------------
Sum:	1609.7640310749
Average:	1609.7640310749 / 5 = 321.95280621498