A-n80-k10.ecl
auxiliars.ecl
A_n32_k5.ecl
b_n31_k5.ecl
c101.ecl
c101_25.ecl
c102.ecl
c103.ecl
c104.ecl
c105.ecl
c106.ecl
c107.ecl
c108.ecl
c109.ecl
c201.ecl
c202.ecl
c203.ecl
c204.ecl
c205.ecl
c206.ecl
c207.ecl
c208.ecl
checkVRP.ecl
constraints.ecl
e_n22_k4.ecl
e_n23_k3.ecl
e_n30_k3.ecl
heuristics.ecl
printit.txt
p_n16_k8.ecl
p_n19_k2.ecl
p_n20_k2.ecl
p_n21_k2.ecl
p_n22_k2.ecl
p_n22_k8.ecl
p_n23_k8.ecl
r101.ecl
r102.ecl
r103.ecl
r104.ecl
r105.ecl
r106.ecl
r107.ecl
r108.ecl
r109.ecl
r110.ecl
r111.ecl
r112.ecl
r201.ecl
r202.ecl
r203.ecl
r204.ecl
r205.ecl
r206.ecl
r207.ecl
r208.ecl
r209.ecl
r210.ecl
r211.ecl
rc101.ecl
rc102.ecl
rc103.ecl
rc104.ecl
rc105.ecl
rc106.ecl
rc107.ecl
rc108.ecl
rc201.ecl
rc202.ecl
rc203.ecl
rc204.ecl
rc205.ecl
rc206.ecl
rc207.ecl
rc208.ecl
VRP.ecl
