#instance | maxRouteCosts | serviceCosts | maxTime(sec) | distribution | firstParam | secondParam | seed 

#test          9999             10              600               g         0.1		0.2		316    492

#P-n20-k2		999999		0		180		g		0.1		0.2		597   284

#A-n32-k5		999999		0		180		g		0.1		0.2		597   284
c50_16mix	99999999		0		120		g		0.1		0.2		127   	1958
#AA30		99999999		0		120		g		0.1		0.2		127   	1958
#c50_14mix	999999		0		180		g		0.1		0.2		597   284