
227.6869312214305
--------------------------------------------

226.39646536087903
--------------------------------------------

228.0369692286993
--------------------------------------------

223.3639747955146
--------------------------------------------

225.01614157573897
--------------------------------------------
Sum:	1130.5004821823
Average:	1130.5004821823 / 5 = 226.10009643645