
319.4598313792775

--------------------------------------------

293.6562378505727

--------------------------------------------

340.1549596489589

--------------------------------------------

294.3654662050802

--------------------------------------------

341.5327597078251

--------------------------------------------

323.0311315495924

--------------------------------------------

282.0137108838344

--------------------------------------------

298.4831281772084

--------------------------------------------

290.2357543865861

--------------------------------------------

337.2833389917914

--------------------------------------------
Sum:	3120.2163187807
Average:	3120.2163187807 / 10 = 312.02163187807