# instance | maxRouteCosts | serviceCosts | maxTime(sec) | distribution | firstParam | secondParam | seed 


#c50_13mix	99999999		0	120	g	0.1	0.2	6368   	696

c100_19mix	99999999		0	120	g	0.1	0.2	256   	5862
#c100_20mix	99999999		0	120	g	0.1	0.2	3265   	89
#c75_18mix	99999999		0	120	g	0.1	0.2	6234   	4521
#c75_17mix	99999999		0	120	g	0.1	0.2	34783   2946
#c50_16mix	99999999		0	120	g	0.1	0.2	127   	1958
#c50_15mix	99999999		0	120	g	0.1	0.2	3213   	936
#c50_14mix	99999999		0	120	g	0.1	0.2	883   	6315