
Sol ID : 1
Sol costs: 1594.0261774476396
# of routes in sol: 9


List of routes (cost and nodes): 

Route 1 || Costs = 381.0782134753238 || Demand  = 139.0 || 
Route 2 || Costs = 191.51676124724668 || Demand  = 140.0 || 
Route 3 || Costs = 267.86959855502107 || Demand  = 139.0 || 
Route 4 || Costs = 120.65595116421939 || Demand  = 79.0 || 
Route 5 || Costs = 143.5344969631647 || Demand  = 74.0 || 
Route 6 || Costs = 134.2460872277391 || Demand  = 78.0 || 
Route 7 || Costs = 109.1153864146792 || Demand  = 71.0 || 
Route 8 || Costs = 127.30013561301314 || Demand  = 40.0 || 
Route 9 || Costs = 118.70954678723248 || Demand  = 17.0 || 



best way: [0, 23, 43, 20, 40, 42, 47, 39, 17, 28, 21, 51, 13, 41, 25, 8, 44, 33, 52, 30, 11, 9, 36, 16, 4, 18, 24, 19, 53, 2, 29, 27, 3, 1, 46, 54, 48, 10, 12, 6, 22, 55, 32, 34, 14, 7, 56, 49, 5, 38, 35, 57, 15, 37, 50, 31, 58, 45, 26, 59]
best way distance: 1594.02617744764
--------------------------------------------
