
Sol ID : 1
Sol costs: 1150.4098865382766
# of routes in sol: 9


List of routes (cost and nodes): 

Route 1 || Costs = 101.69885303436054 || Demand  = 140.0 || 
Route 2 || Costs = 120.22538157836898 || Demand  = 139.0 || 
Route 3 || Costs = 185.41788483234706 || Demand  = 138.0 || 
Route 4 || Costs = 143.8282485723885 || Demand  = 73.0 || 
Route 5 || Costs = 114.34885567691204 || Demand  = 75.0 || 
Route 6 || Costs = 131.37315624133134 || Demand  = 79.0 || 
Route 7 || Costs = 155.2232726594197 || Demand  = 79.0 || 
Route 8 || Costs = 121.71747506684198 || Demand  = 40.0 || 
Route 9 || Costs = 76.57675887630658 || Demand  = 14.0 || 



best way: [0, 46, 47, 17, 12, 5, 2, 32, 38, 51, 27, 6, 8, 31, 28, 20, 16, 49, 52, 25, 14, 4, 18, 22, 3, 10, 15, 53, 30, 21, 50, 35, 36, 29, 1, 54, 11, 9, 19, 41, 37, 55, 23, 7, 43, 13, 24, 56, 48, 26, 34, 44, 42, 57, 45, 33, 40, 58, 39, 59]
best way distance: 1150.4098865382769
--------------------------------------------
