
Sol ID : 1
Sol costs: 833.5870819695658
# of routes in sol: 9


List of routes (cost and nodes): 

Route 1 || Costs = 134.0804797293476 || Demand  = 140.0 || 
Route 2 || Costs = 104.76323428067627 || Demand  = 140.0 || 
Route 3 || Costs = 117.04464460387284 || Demand  = 139.0 || 
Route 4 || Costs = 42.31666252030431 || Demand  = 75.0 || 
Route 5 || Costs = 63.87970588950138 || Demand  = 74.0 || 
Route 6 || Costs = 108.67068703027101 || Demand  = 79.0 || 
Route 7 || Costs = 113.05390587197225 || Demand  = 67.0 || 
Route 8 || Costs = 86.21676771533741 || Demand  = 37.0 || 
Route 9 || Costs = 63.56099432828282 || Demand  = 26.0 || 



best way: [0, 46, 48, 8, 31, 22, 1, 11, 38, 9, 50, 21, 29, 51, 12, 17, 37, 44, 45, 15, 10, 30, 49, 5, 52, 27, 32, 36, 35, 20, 3, 2, 16, 53, 47, 18, 4, 54, 14, 25, 24, 6, 55, 41, 19, 42, 40, 13, 56, 7, 43, 23, 26, 28, 57, 33, 39, 58, 34, 59]
best way distance: 833.5870819695656
--------------------------------------------
