
Sol ID : 1
Sol costs: 1133.3958764379422
# of routes in sol: 9


List of routes (cost and nodes): 

Route 1 || Costs = 157.34235950808602 || Demand  = 138.0 || 
Route 2 || Costs = 194.26522473094602 || Demand  = 140.0 || 
Route 3 || Costs = 193.92976952801462 || Demand  = 137.0 || 
Route 4 || Costs = 90.09952294778824 || Demand  = 77.0 || 
Route 5 || Costs = 82.8356399862693 || Demand  = 80.0 || 
Route 6 || Costs = 107.89585696668466 || Demand  = 76.0 || 
Route 7 || Costs = 137.2708688872001 || Demand  = 80.0 || 
Route 8 || Costs = 108.01523772122067 || Demand  = 30.0 || 
Route 9 || Costs = 61.741396161732524 || Demand  = 19.0 || 



best way: [0, 46, 12, 17, 37, 47, 50, 16, 33, 39, 10, 51, 11, 22, 2, 38, 34, 9, 1, 32, 29, 36, 52, 4, 25, 5, 15, 44, 28, 8, 23, 53, 24, 43, 6, 18, 54, 19, 41, 13, 14, 55, 49, 27, 48, 26, 7, 56, 20, 35, 31, 3, 21, 57, 40, 42, 45, 58, 30, 59]
best way distance: 1133.3958764379422
--------------------------------------------
