
Sol ID : 1
Sol costs: 898.2649012506229
# of routes in sol: 9


List of routes (cost and nodes): 

Route 1 || Costs = 107.06007389723551 || Demand  = 138.0 || 
Route 2 || Costs = 119.33251888931258 || Demand  = 140.0 || 
Route 3 || Costs = 56.777087397265326 || Demand  = 130.0 || 
Route 4 || Costs = 70.51778359208863 || Demand  = 74.0 || 
Route 5 || Costs = 150.03509245660604 || Demand  = 78.0 || 
Route 6 || Costs = 114.2949597599409 || Demand  = 73.0 || 
Route 7 || Costs = 161.60645884446706 || Demand  = 80.0 || 
Route 8 || Costs = 28.284271247461902 || Demand  = 21.0 || 
Route 9 || Costs = 90.35665516624488 || Demand  = 30.0 || 



best way: [0, 46, 12, 37, 17, 44, 15, 45, 33, 38, 49, 51, 1, 22, 28, 3, 35, 20, 29, 21, 16, 50, 9, 52, 47, 18, 25, 14, 6, 53, 48, 23, 7, 26, 27, 54, 11, 32, 41, 19, 43, 55, 30, 34, 39, 10, 4, 56, 8, 31, 2, 36, 24, 57, 5, 58, 13, 40, 59, 0]
best way distance: 1.0000089826490125E8
--------------------------------------------
