
Sol ID : 1
Sol costs: 1285.9085080639882
# of routes in sol: 9


List of routes (cost and nodes): 

Route 1 || Costs = 133.53837130933903 || Demand  = 134.0 || 
Route 2 || Costs = 252.5591918173858 || Demand  = 138.0 || 
Route 3 || Costs = 181.81272750094013 || Demand  = 136.0 || 
Route 4 || Costs = 157.1512113450939 || Demand  = 80.0 || 
Route 5 || Costs = 127.35200168121969 || Demand  = 79.0 || 
Route 6 || Costs = 176.56393905212707 || Demand  = 76.0 || 
Route 7 || Costs = 127.4476823369771 || Demand  = 79.0 || 
Route 8 || Costs = 43.266615305567875 || Demand  = 18.0 || 
Route 9 || Costs = 86.21676771533741 || Demand  = 37.0 || 



best way: [0, 12, 29, 50, 9, 38, 2, 17, 47, 46, 51, 27, 16, 37, 4, 42, 14, 48, 34, 10, 21, 52, 32, 1, 6, 7, 22, 18, 40, 41, 53, 8, 25, 15, 45, 19, 54, 11, 26, 20, 28, 31, 55, 24, 44, 13, 23, 43, 56, 35, 36, 3, 30, 5, 57, 49, 58, 39, 33, 59]
best way distance: 1285.9085080639882
--------------------------------------------
