
Sol ID : 1
Sol costs: 1020.2772272060297
# of routes in sol: 9


List of routes (cost and nodes): 

Route 1 || Costs = 138.20506868672223 || Demand  = 140.0 || 
Route 2 || Costs = 160.46032984817157 || Demand  = 138.0 || 
Route 3 || Costs = 93.17536318548423 || Demand  = 140.0 || 
Route 4 || Costs = 81.0998443449198 || Demand  = 78.0 || 
Route 5 || Costs = 134.19634017770855 || Demand  = 80.0 || 
Route 6 || Costs = 133.1269527437961 || Demand  = 77.0 || 
Route 7 || Costs = 154.30247628430953 || Demand  = 79.0 || 
Route 8 || Costs = 89.48931138236793 || Demand  = 24.0 || 
Route 9 || Costs = 36.22154055254967 || Demand  = 21.0 || 



best way: [0, 46, 47, 12, 28, 3, 35, 20, 36, 51, 38, 24, 23, 6, 48, 1, 32, 11, 49, 37, 52, 18, 25, 13, 41, 19, 4, 17, 53, 27, 2, 16, 50, 21, 54, 15, 30, 5, 10, 39, 9, 55, 43, 7, 26, 8, 31, 29, 56, 34, 45, 33, 42, 40, 57, 44, 22, 58, 14, 59]
best way distance: 1020.2772272060297
--------------------------------------------
