
Sol ID : 1
Sol costs: 992.3112814739974
# of routes in sol: 9


List of routes (cost and nodes): 

Route 1 || Costs = 141.0130318958076 || Demand  = 140.0 || 
Route 2 || Costs = 164.57338781722507 || Demand  = 139.0 || 
Route 3 || Costs = 227.21292105310062 || Demand  = 137.0 || 
Route 4 || Costs = 113.15343542834654 || Demand  = 79.0 || 
Route 5 || Costs = 72.96425661767505 || Demand  = 75.0 || 
Route 6 || Costs = 151.8170104581184 || Demand  = 79.0 || 
Route 7 || Costs = 29.5296461204668 || Demand  = 41.0 || 
Route 8 || Costs = 42.04759208325728 || Demand  = 30.0 || 
Route 9 || Costs = 50.0 || Demand  = 16.0 || 



best way: [0, 46, 6, 17, 12, 11, 32, 38, 9, 50, 16, 29, 51, 4, 47, 30, 34, 10, 5, 49, 37, 1, 52, 27, 14, 36, 35, 20, 26, 28, 22, 31, 24, 53, 19, 41, 13, 40, 42, 54, 8, 48, 23, 7, 55, 25, 45, 15, 33, 21, 56, 18, 57, 2, 58, 44, 59, 0, 0, 0]
best way distance: 3.000009923112815E8
--------------------------------------------
