
Sol ID : 1
Sol costs: 973.5320758725604
# of routes in sol: 9


List of routes (cost and nodes): 

Route 1 || Costs = 165.038151434526 || Demand  = 136.0 || 
Route 2 || Costs = 167.82321769963886 || Demand  = 140.0 || 
Route 3 || Costs = 135.0669343049531 || Demand  = 138.0 || 
Route 4 || Costs = 79.94185085999695 || Demand  = 79.0 || 
Route 5 || Costs = 68.59293233009912 || Demand  = 76.0 || 
Route 6 || Costs = 127.15711294505357 || Demand  = 79.0 || 
Route 7 || Costs = 112.10122960079534 || Demand  = 60.0 || 
Route 8 || Costs = 75.76305461424022 || Demand  = 39.0 || 
Route 9 || Costs = 42.04759208325728 || Demand  = 30.0 || 



best way: [0, 46, 27, 1, 32, 12, 37, 17, 47, 15, 45, 10, 29, 51, 39, 30, 34, 50, 16, 21, 36, 35, 28, 31, 52, 11, 38, 20, 3, 22, 26, 7, 23, 24, 53, 18, 4, 49, 9, 54, 14, 6, 48, 8, 55, 41, 19, 42, 13, 40, 56, 5, 43, 25, 57, 33, 44, 58, 2, 59]
best way distance: 973.5320758725607
--------------------------------------------
