
369.78549151174633
--------------------------------------------

380.84902229273865
--------------------------------------------

382.1822171814669
--------------------------------------------

373.5380879897401
--------------------------------------------

357.64838112739636
--------------------------------------------
Sum:	1864.0032001031
Average:	1864.0032001031 / 5 = 372.80064002062
